Generalized Linear Regression with brms
…
Vedant Shah

20/06/2020

Use the following data frame:

# set up data frame
dolphin_agg <- dolphin %>% 
  filter(correct == 1) %>% 
  mutate(straight = as.factor(ifelse(prototype_label == "straight", 1, 0)),
         log_RT_s = scale(log(RT)))
dolphin_agg

## # A tibble: 1,915 x 18
##       X1 trial_id   MAD     AUC xpos_flips    RT prototype_label subject_id
##    <dbl> <chr>    <dbl>   <dbl>      <dbl> <dbl> <chr>                <dbl>
##  1     1 id0001    82.5  40170.          3   950 straight              1001
##  2     2 id0002    44.7  13947           1  1251 straight              1001
##  3     4 id0004   139.   74084           0   690 curved                1001
##  4     5 id0005   402.  223083           2   951 cCoM                  1001
##  5     6 id0006   670.  308376           2  1079 cCoM                  1001
##  6     7 id0007   850.  281298.          1  1050 dCoM                  1001
##  7     8 id0008    30.8  -2242           0   830 straight              1001
##  8     9 id0009    47.8  16458.          2   700 straight              1001
##  9    10 id0010   -22.6  -2794.          0   810 straight              1001
## 10    11 id0011   423.  182278.          2  1264 cCoM                  1001
## # ... with 1,905 more rows, and 10 more variables: group <chr>,
## #   condition <chr>, exemplar <chr>, category_left <chr>,
## #   category_right <chr>, category_correct <chr>, response <chr>,
## #   correct <dbl>, straight <fct>, log_RT_s[,1] <dbl>
…
predicted_values

## # A tibble: 41 x 7
##    log_RT Atypical_mean Atypical_low Atypical_high Typical_mean Typical_low
##     <dbl>         <dbl>        <dbl>         <dbl>        <dbl>       <dbl>
##  1  -3            0.422        0.330         0.538        0.260       0.220
##  2  -2.8          0.444        0.352         0.560        0.279       0.238
##  3  -2.6          0.468        0.374         0.582        0.300       0.258
##  4  -2.4          0.492        0.398         0.606        0.322       0.279
##  5  -2.2          0.518        0.424         0.631        0.346       0.302
##  6  -2            0.545        0.452         0.656        0.371       0.328
##  7  -1.8          0.574        0.481         0.682        0.399       0.355
##  8  -1.60         0.604        0.512         0.711        0.428       0.384
##  9  -1.4          0.636        0.545         0.741        0.460       0.416
## 10  -1.2          0.669        0.580         0.772        0.494       0.450
## # ... with 31 more rows, and 1 more variable: Typical_high <dbl>
…
Bonus

Binary logistic regression assumes that the outcome variable comes from a Bernoulli distribution which is a special case of a binomial distribution where the number of trial \(n = 1\) and thus the outcome variable can only be 1 or 0. In contrast, binomial logistic regression assumes that the number of the target events follows a binomial distribution with \(n\) trials and probability \(q\). Read up on Binomial data with brms here: https://www.rensvandeschoot.com/tutorials/generalised-linear-models-with-brms/

Take the following subset of the dolphin data frame that only contains correct responses (= 1).

# set up data frame
dolphin_sub <- dolphin %>%
  filter(correct == 1) %>% 
  mutate(straight = (ifelse(prototype_label == "straight", 1, 0)),
         log_RT_s = scale(log(RT)))
dolphin_sub

## # A tibble: 1,915 x 18
##       X1 trial_id   MAD     AUC xpos_flips    RT prototype_label subject_id
##    <dbl> <chr>    <dbl>   <dbl>      <dbl> <dbl> <chr>                <dbl>
##  1     1 id0001    82.5  40170.          3   950 straight              1001
##  2     2 id0002    44.7  13947           1  1251 straight              1001
##  3     4 id0004   139.   74084           0   690 curved                1001
##  4     5 id0005   402.  223083           2   951 cCoM                  1001
##  5     6 id0006   670.  308376           2  1079 cCoM                  1001
##  6     7 id0007   850.  281298.          1  1050 dCoM                  1001
##  7     8 id0008    30.8  -2242           0   830 straight              1001
##  8     9 id0009    47.8  16458.          2   700 straight              1001
##  9    10 id0010   -22.6  -2794.          0   810 straight              1001
## 10    11 id0011   423.  182278.          2  1264 cCoM                  1001
## # ... with 1,905 more rows, and 10 more variables: group <chr>,
## #   condition <chr>, exemplar <chr>, category_left <chr>,
## #   category_right <chr>, category_correct <chr>, response <chr>,
## #   correct <dbl>, straight <dbl>, log_RT_s[,1] <dbl>

Bonus (a)

For each subject_id in each group, aggregate the mean log_RT_s, the number of trials that are classified as straight trajectories, and the total number of trials. Plot the proportion of trials that are classified as straight (vs.all trials) trajectories for each subject.

mean_log <- dolphin_sub %>% group_by(subject_id, group) %>% summarise(mean_log = mean(log_RT_s), total_trials = n()) 
count <- dolphin_sub %>% group_by(subject_id, group) %>% filter(straight == 1) %>% summarise(straight_trials = n()) 
data <- full_join(mean_log, count, by = c("subject_id", "group"))
#data <- data %>% mutate(prop = straight_trials/total_trials)
data

## # A tibble: 108 x 5
## # Groups:   subject_id [108]
##    subject_id group mean_log total_trials straight_trials
##         <dbl> <chr>    <dbl>        <int>           <int>
##  1       1001 touch   -1.16            16               8
##  2       1002 click   -0.130           19              11
##  3       1003 click    1.38            17              16
##  4       1004 touch   -0.144           18              13
##  5       1005 touch   -0.423           17               9
##  6       1006 touch   -0.464           19              10
##  7       1007 click    0.308           19              11
##  8       1008 touch   -0.627           18              18
##  9       1009 touch    0.894           19              17
## 10       1010 click   -0.379           19               9
## # ... with 98 more rows
…
predicted_values

## # A tibble: 66 x 7
##    log_RT click_mean click_low click_high touch_mean touch_low touch_high
##     <dbl>      <dbl>     <dbl>      <dbl>      <dbl>     <dbl>      <dbl>
##  1   -5        0.183    0.0477      0.416      0.696     0.384      0.905
##  2   -4.8      0.195    0.0546      0.427      0.703     0.403      0.903
##  3   -4.6      0.208    0.0626      0.438      0.710     0.425      0.900
##  4   -4.4      0.221    0.0718      0.450      0.716     0.447      0.898
##  5   -4.2      0.236    0.0818      0.461      0.723     0.470      0.896
##  6   -4        0.251    0.0931      0.472      0.730     0.491      0.893
##  7   -3.8      0.266    0.106       0.483      0.736     0.513      0.891
##  8   -3.6      0.283    0.120       0.494      0.742     0.535      0.888
##  9   -3.4      0.300    0.137       0.505      0.749     0.556      0.886
## 10   -3.2      0.319    0.155       0.516      0.755     0.578      0.883
## # ... with 56 more rows
…
